/* XPM */
static char *location[] = {
/* width height num_colors chars_per_pixel */
"    28    28       23            1",
/* colors */
". c #000000",
"# c #000080",
"a c #0000f8",
"b c #003438",
"c c #008000",
"d c #008080",
"e c #00fc00",
"f c #202020",
"g c #303060",
"h c #4098a0",
"i c #6064c8",
"j c #800000",
"k c #808000",
"l c #808080",
"m c #980060",
"n c #9898f8",
"o c #b2b2b2  s backgroundToolBarColor",
"p c #e8e8e8",
"q c #f80000",
"r c #f86430",
"s c #f864c8",
"t c #f8fc00",
"u c #f8fcf8",
/* pixels */
"oooooooooooooooooooooooooooo",
"oooooooooooooooooooooooooooo",
"oooooooooooooooooooooooooooo",
"oooooooooooooooooooooooooooo",
"oooooooniiigoooooooooooooooo",
"ooooooonuoigoooooooooooooooo",
"ooooooonogigoooooooooooooooo",
"oooooonoggi.oooooooooooooooo",
"ooooonogggi.oooooooooooooooo",
"oooonogiggi.oooooooooooooooo",
"ooonoiigggi.oooooooooooooooo",
"oonunigig.igggiiiiiiiooooooo",
"oonuniigg.noooooooooogoooooo",
"oonunigi.iinnnnnnnnnnogooooo",
"oonuiii.niinnnnnnnnnnngooooo",
"ooigg..ioiinnnnnnnnnnngooooo",
"oooooooioiinnnnnnnnnngoooooo",
"oooooooioigggggggggggooooooo",
"oooooooioig.oooooooooooooooo",
"oooooooioiggligigiiiillooooo",
"oooooooioiggigigigillloooooo",
"oooooooioigglilooooooooooooo",
"oooooooioigllooooooooooooooo",
"oooooooooooooooooooooooooooo",
"oooooooooooooooooooooooooooo",
"oooooooooooooooooooooooooooo",
"oooooooooooooooooooooooooooo",
"oooooooooooooooooooooooooooo"
};
